…
```r
resids %>% 
  group_by(name, treatment) %>% 
  summarise(var_lfq = var(LFQ),
            var_resid = var(resid))
```

```
## # A tibble: 5,222 x 4
## # Groups:   name [?]
##    name  treatment var_lfq var_resid
##    <chr> <chr>       <dbl>     <dbl>
##  1 A1BG  L         0.477     0.198  
##  2 A1BG  P         0.255     0.0872 
##  3 A1CF  L         0.00643   0.00311
##  4 A1CF  P         0.0186    0.00439
##  5 A2M   L         0.453     0.304  
##  6 A2M   P         0.321     0.134  
##  7 AACS  L         0.120     0.122  
##  8 AACS  P         0.218     0.0594 
##  9 AADAC L         0.0302    0.0624 
## 10 AADAC P         0.0592    0.0445 
## # ... with 5,212 more rows
```
…
```r
resids %>% 
  group_by(name, treatment) %>% 
  summarise(var_lfq = var(LFQ),
            var_resid = var(resid))
```

```
## # A tibble: 5,222 x 4
## # Groups:   name [?]
##    name  treatment var_lfq var_resid
##    <chr> <chr>       <dbl>     <dbl>
##  1 A1BG  L         0.477     0.198  
##  2 A1BG  P         0.255     0.0872 
##  3 A1CF  L         0.00643   0.00311
##  4 A1CF  P         0.0186    0.00439
##  5 A2M   L         0.453     0.304  
##  6 A2M   P         0.321     0.134  
##  7 AACS  L         0.120     0.122  
##  8 AACS  P         0.218     0.0594 
##  9 AADAC L         0.0302    0.0624 
## 10 AADAC P         0.0592    0.0445 
## # ... with 5,212 more rows
```
…
